…
2.  

``` r
segment_counts <- diamonds |>
  count(color, cut) |>
  arrange(color, desc(n))

segment_counts
```

    # A tibble: 35 × 3
       color cut           n
       <ord> <ord>     <int>
     1 D     Ideal      2834
     2 D     Premium    1603
     3 D     Very Good  1513
     4 D     Good        662
     5 D     Fair        163
     6 E     Ideal      3903
     7 E     Very Good  2400
     8 E     Premium    2337
     9 E     Good        933
    10 E     Fair        224
    # ℹ 25 more rows
…
