…
``` r
str_detect(c("a", "b", "c"), "[aeiou]")
```

    [1]  TRUE FALSE FALSE

``` r
babynames |> 
  filter(str_detect(name, "x")) |> 
  count(name, wt = n, sort = TRUE)
```

    # A tibble: 974 × 2
       name            n
       <chr>       <int>
     1 Alexander  665492
     2 Alexis     399551
     3 Alex       278705
     4 Alexandra  232223
     5 Max        148787
     6 Alexa      123032
     7 Maxine     112261
     8 Alexandria  97679
     9 Maxwell     90486
    10 Jaxon       71234
    # ℹ 964 more rows
…
    [1] │ <aba>b<aba>

``` r
babynames |> 
  count(name) |> 
  mutate(
    vowels = str_count(name, "[aeiou]"),
    consonants = str_count(name, "[^aeiou]")
  )
```

    # A tibble: 97,310 × 4
       name          n vowels consonants
       <chr>     <int>  <int>      <int>
     1 Aaban        10      2          3
     2 Aabha         5      2          3
     3 Aabid         2      2          3
     4 Aabir         1      2          3
     5 Aabriella     5      4          5
     6 Aada          1      2          2
     7 Aadam        26      2          3
     8 Aadan        11      2          3
     9 Aadarsh      17      2          5
    10 Aaden        18      2          3
    # ℹ 97,300 more rows

``` r
babynames |> 
  count(name) |> 
  mutate(
    name = str_to_lower(name),
    vowels = str_count(name, "[aeiou]"),
    consonants = str_count(name, "[^aeiou]")
  )
```

    # A tibble: 97,310 × 4
       name          n vowels consonants
       <chr>     <int>  <int>      <int>
     1 aaban        10      3          2
     2 aabha         5      3          2
     3 aabid         2      3          2
     4 aabir         1      3          2
     5 aabriella     5      5          4
     6 aada          1      3          1
     7 aadam        26      3          2
     8 aadan        11      3          2
     9 aadarsh      17      3          4
    10 aaden        18      3          2
    # ℹ 97,300 more rows
…
