…
    # A tibble: 1 × 3
        alt   lat     n
      <dbl> <dbl> <int>
    1    13  40.6     2

``` r
flights2 <- flights |> 
  mutate(id = row_number(), .before = 1)
flights2
```

    # A tibble: 336,776 × 20
          id  year month   day dep_time sched_dep_time dep_delay arr_time
       <int> <int> <int> <int>    <int>          <int>     <dbl>    <int>
     1     1  2013     1     1      517            515         2      830
     2     2  2013     1     1      533            529         4      850
     3     3  2013     1     1      542            540         2      923
     4     4  2013     1     1      544            545        -1     1004
     5     5  2013     1     1      554            600        -6      812
     6     6  2013     1     1      554            558        -4      740
     7     7  2013     1     1      555            600        -5      913
     8     8  2013     1     1      557            600        -3      709
     9     9  2013     1     1      557            600        -3      838
    10    10  2013     1     1      558            600        -2      753
    # ℹ 336,766 more rows
    # ℹ 12 more variables: sched_arr_time <int>, arr_delay <dbl>, carrier <chr>,
    #   flight <int>, tailnum <chr>, origin <chr>, dest <chr>, air_time <dbl>,
    #   distance <dbl>, hour <dbl>, minute <dbl>, time_hour <dttm>
…
Not sure what the diagram

# Mutating Joins

``` r
flights2 <- flights |> 
  select(year, time_hour, origin, dest, tailnum, carrier)
flights2
```

    # A tibble: 336,776 × 6
        year time_hour           origin dest  tailnum carrier
       <int> <dttm>              <chr>  <chr> <chr>   <chr>  
     1  2013 2013-01-01 05:00:00 EWR    IAH   N14228  UA     
     2  2013 2013-01-01 05:00:00 LGA    IAH   N24211  UA     
     3  2013 2013-01-01 05:00:00 JFK    MIA   N619AA  AA     
     4  2013 2013-01-01 05:00:00 JFK    BQN   N804JB  B6     
     5  2013 2013-01-01 06:00:00 LGA    ATL   N668DN  DL     
     6  2013 2013-01-01 05:00:00 EWR    ORD   N39463  UA     
     7  2013 2013-01-01 06:00:00 EWR    FLL   N516JB  B6     
     8  2013 2013-01-01 06:00:00 LGA    IAD   N829AS  EV     
     9  2013 2013-01-01 06:00:00 JFK    MCO   N593JB  B6     
    10  2013 2013-01-01 06:00:00 LGA    ORD   N3ALAA  AA     
    # ℹ 336,766 more rows

``` r
flights2 |>
  left_join(airlines)
```

    Joining with `by = join_by(carrier)`

    # A tibble: 336,776 × 7
        year time_hour           origin dest  tailnum carrier name                  
       <int> <dttm>              <chr>  <chr> <chr>   <chr>   <chr>                 
     1  2013 2013-01-01 05:00:00 EWR    IAH   N14228  UA      United Air Lines Inc. 
     2  2013 2013-01-01 05:00:00 LGA    IAH   N24211  UA      United Air Lines Inc. 
     3  2013 2013-01-01 05:00:00 JFK    MIA   N619AA  AA      American Airlines Inc.
     4  2013 2013-01-01 05:00:00 JFK    BQN   N804JB  B6      JetBlue Airways       
     5  2013 2013-01-01 06:00:00 LGA    ATL   N668DN  DL      Delta Air Lines Inc.  
     6  2013 2013-01-01 05:00:00 EWR    ORD   N39463  UA      United Air Lines Inc. 
     7  2013 2013-01-01 06:00:00 EWR    FLL   N516JB  B6      JetBlue Airways       
     8  2013 2013-01-01 06:00:00 LGA    IAD   N829AS  EV      ExpressJet Airlines I…
     9  2013 2013-01-01 06:00:00 JFK    MCO   N593JB  B6      JetBlue Airways       
    10  2013 2013-01-01 06:00:00 LGA    ORD   N3ALAA  AA      American Airlines Inc.
    # ℹ 336,766 more rows

``` r
flights2 |> 
  left_join(weather |> select(origin, time_hour, temp, wind_speed))
```

    Joining with `by = join_by(time_hour, origin)`

    # A tibble: 336,776 × 8
        year time_hour           origin dest  tailnum carrier  temp wind_speed
       <int> <dttm>              <chr>  <chr> <chr>   <chr>   <dbl>      <dbl>
     1  2013 2013-01-01 05:00:00 EWR    IAH   N14228  UA       39.0       12.7
     2  2013 2013-01-01 05:00:00 LGA    IAH   N24211  UA       39.9       15.0
     3  2013 2013-01-01 05:00:00 JFK    MIA   N619AA  AA       39.0       15.0
     4  2013 2013-01-01 05:00:00 JFK    BQN   N804JB  B6       39.0       15.0
     5  2013 2013-01-01 06:00:00 LGA    ATL   N668DN  DL       39.9       16.1
     6  2013 2013-01-01 05:00:00 EWR    ORD   N39463  UA       39.0       12.7
     7  2013 2013-01-01 06:00:00 EWR    FLL   N516JB  B6       37.9       11.5
     8  2013 2013-01-01 06:00:00 LGA    IAD   N829AS  EV       39.9       16.1
     9  2013 2013-01-01 06:00:00 JFK    MCO   N593JB  B6       37.9       13.8
    10  2013 2013-01-01 06:00:00 LGA    ORD   N3ALAA  AA       39.9       16.1
    # ℹ 336,766 more rows

``` r
flights2 |> 
  left_join(planes |> select(tailnum, type, engines, seats))
```

    Joining with `by = join_by(tailnum)`

    # A tibble: 336,776 × 9
        year time_hour           origin dest  tailnum carrier type     engines seats
       <int> <dttm>              <chr>  <chr> <chr>   <chr>   <chr>      <int> <int>
     1  2013 2013-01-01 05:00:00 EWR    IAH   N14228  UA      Fixed w…       2   149
     2  2013 2013-01-01 05:00:00 LGA    IAH   N24211  UA      Fixed w…       2   149
     3  2013 2013-01-01 05:00:00 JFK    MIA   N619AA  AA      Fixed w…       2   178
     4  2013 2013-01-01 05:00:00 JFK    BQN   N804JB  B6      Fixed w…       2   200
     5  2013 2013-01-01 06:00:00 LGA    ATL   N668DN  DL      Fixed w…       2   178
     6  2013 2013-01-01 05:00:00 EWR    ORD   N39463  UA      Fixed w…       2   191
     7  2013 2013-01-01 06:00:00 EWR    FLL   N516JB  B6      Fixed w…       2   200
     8  2013 2013-01-01 06:00:00 LGA    IAD   N829AS  EV      Fixed w…       2    55
     9  2013 2013-01-01 06:00:00 JFK    MCO   N593JB  B6      Fixed w…       2   200
    10  2013 2013-01-01 06:00:00 LGA    ORD   N3ALAA  AA      <NA>          NA    NA
    # ℹ 336,766 more rows

``` r
flights2 |> 
  filter(tailnum == "N3ALAA") |> 
  left_join(planes |> select(tailnum, type, engines, seats))
```

    Joining with `by = join_by(tailnum)`

    # A tibble: 63 × 9
        year time_hour           origin dest  tailnum carrier type  engines seats
       <int> <dttm>              <chr>  <chr> <chr>   <chr>   <chr>   <int> <int>
     1  2013 2013-01-01 06:00:00 LGA    ORD   N3ALAA  AA      <NA>       NA    NA
     2  2013 2013-01-02 18:00:00 LGA    ORD   N3ALAA  AA      <NA>       NA    NA
     3  2013 2013-01-03 06:00:00 LGA    ORD   N3ALAA  AA      <NA>       NA    NA
     4  2013 2013-01-07 19:00:00 LGA    ORD   N3ALAA  AA      <NA>       NA    NA
     5  2013 2013-01-08 17:00:00 JFK    ORD   N3ALAA  AA      <NA>       NA    NA
     6  2013 2013-01-16 06:00:00 LGA    ORD   N3ALAA  AA      <NA>       NA    NA
     7  2013 2013-01-20 18:00:00 LGA    ORD   N3ALAA  AA      <NA>       NA    NA
     8  2013 2013-01-22 17:00:00 JFK    ORD   N3ALAA  AA      <NA>       NA    NA
     9  2013 2013-10-11 06:00:00 EWR    MIA   N3ALAA  AA      <NA>       NA    NA
    10  2013 2013-10-14 08:00:00 JFK    BOS   N3ALAA  AA      <NA>       NA    NA
    # ℹ 53 more rows

# Specifying Join Keys

left_join(): the output will always have the same rows as x, the data
frame you’re joining to

``` r
flights2 |> 
  left_join(planes)
```

    Joining with `by = join_by(year, tailnum)`

    # A tibble: 336,776 × 13
        year time_hour           origin dest  tailnum carrier type  manufacturer
       <int> <dttm>              <chr>  <chr> <chr>   <chr>   <chr> <chr>       
     1  2013 2013-01-01 05:00:00 EWR    IAH   N14228  UA      <NA>  <NA>        
     2  2013 2013-01-01 05:00:00 LGA    IAH   N24211  UA      <NA>  <NA>        
     3  2013 2013-01-01 05:00:00 JFK    MIA   N619AA  AA      <NA>  <NA>        
     4  2013 2013-01-01 05:00:00 JFK    BQN   N804JB  B6      <NA>  <NA>        
     5  2013 2013-01-01 06:00:00 LGA    ATL   N668DN  DL      <NA>  <NA>        
     6  2013 2013-01-01 05:00:00 EWR    ORD   N39463  UA      <NA>  <NA>        
     7  2013 2013-01-01 06:00:00 EWR    FLL   N516JB  B6      <NA>  <NA>        
     8  2013 2013-01-01 06:00:00 LGA    IAD   N829AS  EV      <NA>  <NA>        
     9  2013 2013-01-01 06:00:00 JFK    MCO   N593JB  B6      <NA>  <NA>        
    10  2013 2013-01-01 06:00:00 LGA    ORD   N3ALAA  AA      <NA>  <NA>        
    # ℹ 336,766 more rows
    # ℹ 5 more variables: model <chr>, engines <int>, seats <int>, speed <int>,
    #   engine <chr>

``` r
flights2 |> 
  left_join(planes, join_by(tailnum))
```

    # A tibble: 336,776 × 14
       year.x time_hour           origin dest  tailnum carrier year.y type          
        <int> <dttm>              <chr>  <chr> <chr>   <chr>    <int> <chr>         
     1   2013 2013-01-01 05:00:00 EWR    IAH   N14228  UA        1999 Fixed wing mu…
     2   2013 2013-01-01 05:00:00 LGA    IAH   N24211  UA        1998 Fixed wing mu…
     3   2013 2013-01-01 05:00:00 JFK    MIA   N619AA  AA        1990 Fixed wing mu…
     4   2013 2013-01-01 05:00:00 JFK    BQN   N804JB  B6        2012 Fixed wing mu…
     5   2013 2013-01-01 06:00:00 LGA    ATL   N668DN  DL        1991 Fixed wing mu…
     6   2013 2013-01-01 05:00:00 EWR    ORD   N39463  UA        2012 Fixed wing mu…
     7   2013 2013-01-01 06:00:00 EWR    FLL   N516JB  B6        2000 Fixed wing mu…
     8   2013 2013-01-01 06:00:00 LGA    IAD   N829AS  EV        1998 Fixed wing mu…
     9   2013 2013-01-01 06:00:00 JFK    MCO   N593JB  B6        2004 Fixed wing mu…
    10   2013 2013-01-01 06:00:00 LGA    ORD   N3ALAA  AA          NA <NA>          
    # ℹ 336,766 more rows
    # ℹ 6 more variables: manufacturer <chr>, model <chr>, engines <int>,
    #   seats <int>, speed <int>, engine <chr>

``` r
flights2 |> 
  left_join(airports, join_by(dest == faa))
```

    # A tibble: 336,776 × 13
        year time_hour           origin dest  tailnum carrier name         lat   lon
       <int> <dttm>              <chr>  <chr> <chr>   <chr>   <chr>      <dbl> <dbl>
     1  2013 2013-01-01 05:00:00 EWR    IAH   N14228  UA      George Bu…  30.0 -95.3
     2  2013 2013-01-01 05:00:00 LGA    IAH   N24211  UA      George Bu…  30.0 -95.3
     3  2013 2013-01-01 05:00:00 JFK    MIA   N619AA  AA      Miami Intl  25.8 -80.3
     4  2013 2013-01-01 05:00:00 JFK    BQN   N804JB  B6      <NA>        NA    NA  
     5  2013 2013-01-01 06:00:00 LGA    ATL   N668DN  DL      Hartsfiel…  33.6 -84.4
     6  2013 2013-01-01 05:00:00 EWR    ORD   N39463  UA      Chicago O…  42.0 -87.9
     7  2013 2013-01-01 06:00:00 EWR    FLL   N516JB  B6      Fort Laud…  26.1 -80.2
     8  2013 2013-01-01 06:00:00 LGA    IAD   N829AS  EV      Washingto…  38.9 -77.5
     9  2013 2013-01-01 06:00:00 JFK    MCO   N593JB  B6      Orlando I…  28.4 -81.3
    10  2013 2013-01-01 06:00:00 LGA    ORD   N3ALAA  AA      Chicago O…  42.0 -87.9
    # ℹ 336,766 more rows
    # ℹ 4 more variables: alt <dbl>, tz <dbl>, dst <chr>, tzone <chr>

``` r
flights2 |> 
  left_join(airports, join_by(origin == faa))
```

    # A tibble: 336,776 × 13
        year time_hour           origin dest  tailnum carrier name         lat   lon
       <int> <dttm>              <chr>  <chr> <chr>   <chr>   <chr>      <dbl> <dbl>
     1  2013 2013-01-01 05:00:00 EWR    IAH   N14228  UA      Newark Li…  40.7 -74.2
     2  2013 2013-01-01 05:00:00 LGA    IAH   N24211  UA      La Guardia  40.8 -73.9
     3  2013 2013-01-01 05:00:00 JFK    MIA   N619AA  AA      John F Ke…  40.6 -73.8
     4  2013 2013-01-01 05:00:00 JFK    BQN   N804JB  B6      John F Ke…  40.6 -73.8
     5  2013 2013-01-01 06:00:00 LGA    ATL   N668DN  DL      La Guardia  40.8 -73.9
     6  2013 2013-01-01 05:00:00 EWR    ORD   N39463  UA      Newark Li…  40.7 -74.2
     7  2013 2013-01-01 06:00:00 EWR    FLL   N516JB  B6      Newark Li…  40.7 -74.2
     8  2013 2013-01-01 06:00:00 LGA    IAD   N829AS  EV      La Guardia  40.8 -73.9
     9  2013 2013-01-01 06:00:00 JFK    MCO   N593JB  B6      John F Ke…  40.6 -73.8
    10  2013 2013-01-01 06:00:00 LGA    ORD   N3ALAA  AA      La Guardia  40.8 -73.9
    # ℹ 336,766 more rows
    # ℹ 4 more variables: alt <dbl>, tz <dbl>, dst <chr>, tzone <chr>
…
    # A tibble: 4 × 1
      dest 
      <chr>
    1 BQN  
    2 SJU  
    3 STT  
    4 PSE  

``` r
flights2 |>
  anti_join(planes, join_by(tailnum)) |> 
  distinct(tailnum)
```

    # A tibble: 722 × 1
       tailnum
       <chr>  
     1 N3ALAA 
     2 N3DUAA 
     3 N542MQ 
     4 N730MQ 
     5 N9EAMQ 
     6 N532UA 
     7 N3EMAA 
     8 N518MQ 
     9 N3BAAA 
    10 N3CYAA 
    # ℹ 712 more rows
…
# Question 2

``` r
top_dest <- flights2 |>
  count(dest, sort = TRUE) |>
  head(10)

flights_to_top_dest <- flights2 |>
  filter(dest %in% top_dest$dest)
flights2 |>
  semi_join(top_dest, by = "dest")
```

    # A tibble: 141,145 × 6
        year time_hour           origin dest  tailnum carrier
       <int> <dttm>              <chr>  <chr> <chr>   <chr>  
     1  2013 2013-01-01 05:00:00 JFK    MIA   N619AA  AA     
     2  2013 2013-01-01 06:00:00 LGA    ATL   N668DN  DL     
     3  2013 2013-01-01 05:00:00 EWR    ORD   N39463  UA     
     4  2013 2013-01-01 06:00:00 EWR    FLL   N516JB  B6     
     5  2013 2013-01-01 06:00:00 JFK    MCO   N593JB  B6     
     6  2013 2013-01-01 06:00:00 LGA    ORD   N3ALAA  AA     
     7  2013 2013-01-01 06:00:00 JFK    LAX   N29129  UA     
     8  2013 2013-01-01 06:00:00 EWR    SFO   N53441  UA     
     9  2013 2013-01-01 05:00:00 JFK    BOS   N708JB  B6     
    10  2013 2013-01-01 06:00:00 LGA    FLL   N595JB  B6     
    # ℹ 141,135 more rows
…
flights_with_geo <- flights_with_origin %>%
  left_join(
    airports %>% select(faa, dest_lat = lat, dest_lon = lon),
    by = c("dest" = "faa")
  )
print(flights_with_geo)
```

    # A tibble: 336,776 × 23
        year month   day dep_time sched_dep_time dep_delay arr_time sched_arr_time
       <int> <int> <int>    <int>          <int>     <dbl>    <int>          <int>
     1  2013     1     1      517            515         2      830            819
     2  2013     1     1      533            529         4      850            830
     3  2013     1     1      542            540         2      923            850
     4  2013     1     1      544            545        -1     1004           1022
     5  2013     1     1      554            600        -6      812            837
     6  2013     1     1      554            558        -4      740            728
     7  2013     1     1      555            600        -5      913            854
     8  2013     1     1      557            600        -3      709            723
     9  2013     1     1      557            600        -3      838            846
    10  2013     1     1      558            600        -2      753            745
    # ℹ 336,766 more rows
    # ℹ 15 more variables: arr_delay <dbl>, carrier <chr>, flight <int>,
    #   tailnum <chr>, origin <chr>, dest <chr>, air_time <dbl>, distance <dbl>,
    #   hour <dbl>, minute <dbl>, time_hour <dttm>, origin_lat <dbl>,
    #   origin_lon <dbl>, dest_lat <dbl>, dest_lon <dbl>

``` r
print(flights_with_origin)
```

    # A tibble: 336,776 × 21
        year month   day dep_time sched_dep_time dep_delay arr_time sched_arr_time
       <int> <int> <int>    <int>          <int>     <dbl>    <int>          <int>
     1  2013     1     1      517            515         2      830            819
     2  2013     1     1      533            529         4      850            830
     3  2013     1     1      542            540         2      923            850
     4  2013     1     1      544            545        -1     1004           1022
     5  2013     1     1      554            600        -6      812            837
     6  2013     1     1      554            558        -4      740            728
     7  2013     1     1      555            600        -5      913            854
     8  2013     1     1      557            600        -3      709            723
     9  2013     1     1      557            600        -3      838            846
    10  2013     1     1      558            600        -2      753            745
    # ℹ 336,766 more rows
    # ℹ 13 more variables: arr_delay <dbl>, carrier <chr>, flight <int>,
    #   tailnum <chr>, origin <chr>, dest <chr>, air_time <dbl>, distance <dbl>,
    #   hour <dbl>, minute <dbl>, time_hour <dttm>, origin_lat <dbl>,
    #   origin_lon <dbl>
…
