…
``` r
flights |> 
  distinct(tailnum) |> 
  anti_join(planes)
```

    Joining with `by = join_by(tailnum)`

    # A tibble: 722 × 1
       tailnum
       <chr>  
     1 N3ALAA 
     2 N3DUAA 
     3 N542MQ 
     4 N730MQ 
     5 N9EAMQ 
     6 N532UA 
     7 N3EMAA 
     8 N518MQ 
     9 N3BAAA 
    10 N3CYAA 
    # ℹ 712 more rows

# Exercises pt 1 of 1

``` r
missing_planes <- flights |> 
  anti_join(planes, by = "tailnum")

missing_planes
```

    # A tibble: 52,606 × 19
        year month   day dep_time sched_dep_time dep_delay arr_time sched_arr_time
       <int> <int> <int>    <int>          <int>     <dbl>    <int>          <int>
     1  2013     1     1      558            600        -2      753            745
     2  2013     1     1      559            600        -1      941            910
     3  2013     1     1      600            600         0      837            825
     4  2013     1     1      602            605        -3      821            805
     5  2013     1     1      608            600         8      807            735
     6  2013     1     1      611            600        11      945            931
     7  2013     1     1      623            610        13      920            915
     8  2013     1     1      624            630        -6      840            830
     9  2013     1     1      628            630        -2     1137           1140
    10  2013     1     1      629            630        -1      824            810
    # ℹ 52,596 more rows
    # ℹ 11 more variables: arr_delay <dbl>, carrier <chr>, flight <int>,
    #   tailnum <chr>, origin <chr>, dest <chr>, air_time <dbl>, distance <dbl>,
    #   hour <dbl>, minute <dbl>, time_hour <dttm>
…
