…
``` r
df_long <- df_paired |> 
  pivot_longer(
    everything(), 
    names_to = c("group", ".value"), 
    names_sep = "_"
  )
df_long
```

    # A tibble: 40 × 3
       group    val    wts
       <chr>  <dbl>  <dbl>
     1 a     -0.757 0.917 
     2 b      0.735 0.0809
     3 c     -0.904 0.315 
     4 d     -1.07  0.213 
     5 a     -1.78  0.950 
     6 b      0.412 0.547 
     7 c      0.464 0.331 
     8 d     -0.321 0.603 
     9 a      1.53  0.0604
    10 b     -0.548 0.652 
    # ℹ 30 more rows
…
3.  

``` r
diamonds |> 
  group_by(cut, clarity, color) |> 
  summarise(
    n = n(),
    across(where(is.numeric), mean),
    .groups = "drop"
  )
```

    # A tibble: 276 × 11
       cut   clarity color     n carat depth table price     x     y     z
       <ord> <ord>   <ord> <dbl> <dbl> <dbl> <dbl> <dbl> <dbl> <dbl> <dbl>
     1 Fair  I1      D         4 1.88   65.6  56.8 7383   7.52  7.42  4.90
     2 Fair  I1      E         9 0.969  65.6  58.1 2095.  6.17  6.06  4.01
     3 Fair  I1      F        35 1.02   65.7  58.4 2544.  6.14  6.04  4.00
     4 Fair  I1      G        53 1.23   65.3  57.7 3187.  6.52  6.43  4.23
     5 Fair  I1      H        52 1.50   65.8  58.4 4213.  6.96  6.86  4.55
     6 Fair  I1      I        34 1.32   65.7  58.4 3501   6.76  6.65  4.41
     7 Fair  I1      J        23 1.99   66.5  57.9 5795.  7.55  7.46  4.99
     8 Fair  SI2     D        56 1.02   64.7  58.6 4355.  6.24  6.17  4.01
     9 Fair  SI2     E        78 1.02   63.4  59.5 4172.  6.28  6.22  3.96
    10 Fair  SI2     F        89 1.08   63.8  59.5 4520.  6.36  6.30  4.04
    # ℹ 266 more rows
…
``` r
by_clarity$data[[1]]
```

    # A tibble: 741 × 9
       carat cut       color depth table price     x     y     z
       <dbl> <ord>     <ord> <dbl> <dbl> <int> <dbl> <dbl> <dbl>
     1  0.32 Premium   E      60.9    58   345  4.38  4.42  2.68
     2  1.17 Very Good J      60.2    61  2774  6.83  6.9   4.13
     3  1.01 Premium   F      61.8    60  2781  6.39  6.36  3.94
     4  1.01 Fair      E      64.5    58  2788  6.29  6.21  4.03
     5  0.96 Ideal     F      60.7    55  2801  6.37  6.41  3.88
     6  1.04 Premium   G      62.2    58  2801  6.46  6.41  4   
     7  1    Fair      G      66.4    59  2808  6.16  6.09  4.07
     8  1.2  Fair      F      64.6    56  2809  6.73  6.66  4.33
     9  0.43 Very Good E      58.4    62   555  4.94  5     2.9 
    10  1.02 Premium   G      60.3    58  2815  6.55  6.5   3.94
    # ℹ 731 more rows
…
