…
df <- read_csv(csv, col_types = cols(month = col_factor(month_levels)))
df$month
```

    [1] Jan Feb Mar
    Levels: Jan Feb Mar Apr May Jun Jul Aug Sep Oct Nov Dec

# General Social Survey

``` r
gss_cat
```

    # A tibble: 21,483 × 9
        year marital         age race  rincome        partyid    relig denom tvhours
       <int> <fct>         <int> <fct> <fct>          <fct>      <fct> <fct>   <int>
     1  2000 Never married    26 White $8000 to 9999  Ind,near … Prot… Sout…      12
     2  2000 Divorced         48 White $8000 to 9999  Not str r… Prot… Bapt…      NA
     3  2000 Widowed          67 White Not applicable Independe… Prot… No d…       2
     4  2000 Never married    39 White Not applicable Ind,near … Orth… Not …       4
     5  2000 Divorced         25 White Not applicable Not str d… None  Not …       1
     6  2000 Married          25 White $20000 - 24999 Strong de… Prot… Sout…      NA
     7  2000 Never married    36 White $25000 or more Not str r… Chri… Not …       3
     8  2000 Divorced         44 White $7000 to 7999  Ind,near … Prot… Luth…      NA
     9  2000 Married          44 White $25000 or more Not str d… Prot… Other       0
    10  2000 Married          47 White $25000 or more Strong re… Prot… Sout…       3
    # ℹ 21,473 more rows
…
\#Independent is the most common party identity \#mQuestion 3

``` r
library(dplyr)
gss_cat %>%
  count(denom, relig)
```

    # A tibble: 47 × 3
       denom           relig          n
       <fct>           <fct>      <int>
     1 No answer       No answer     93
     2 No answer       Christian      2
     3 No answer       Protestant    22
     4 Don't know      Christian     11
     5 Don't know      Protestant    41
     6 No denomination Christian    452
     7 No denomination Other          7
     8 No denomination Protestant  1224
     9 Other           Protestant  2534
    10 Episcopal       Protestant   397
    # ℹ 37 more rows
…
    partyid = fct_recode(partyid,
      "Republican, strong"    = "Strong republican",
      "Republican, weak"      = "Not str republican",
      "Independent, near rep" = "Ind,near rep",
      "Independent, near dem" = "Ind,near dem",
      "Democrat, weak"        = "Not str democrat",
      "Democrat, strong"      = "Strong democrat",
      "Other"                 = "No answer",
      "Other"                 = "Don't know",
      "Other"                 = "Other party"
    )
  )
```

    # A tibble: 21,483 × 9
        year marital         age race  rincome        partyid    relig denom tvhours
       <int> <fct>         <int> <fct> <fct>          <fct>      <fct> <fct>   <int>
     1  2000 Never married    26 White $8000 to 9999  Independe… Prot… Sout…      12
     2  2000 Divorced         48 White $8000 to 9999  Republica… Prot… Bapt…      NA
     3  2000 Widowed          67 White Not applicable Independe… Prot… No d…       2
     4  2000 Never married    39 White Not applicable Independe… Orth… Not …       4
     5  2000 Divorced         25 White Not applicable Democrat,… None  Not …       1
     6  2000 Married          25 White $20000 - 24999 Democrat,… Prot… Sout…      NA
     7  2000 Never married    36 White $25000 or more Republica… Chri… Not …       3
     8  2000 Divorced         44 White $7000 to 7999  Independe… Prot… Luth…      NA
     9  2000 Married          44 White $25000 or more Democrat,… Prot… Other       0
    10  2000 Married          47 White $25000 or more Republica… Prot… Sout…       3
    # ℹ 21,473 more rows
…
    Warning: There was 1 warning in `mutate()`.
    ℹ In argument: `rincome = fct_collapse(...)`.
    Caused by warning:
    ! Unknown levels in `f`: 25000 or more

    # A tibble: 21,483 × 9
        year marital         age race  rincome        partyid    relig denom tvhours
       <int> <fct>         <int> <fct> <fct>          <fct>      <fct> <fct>   <int>
     1  2000 Never married    26 White 5,000 - 15,000 Ind,near … Prot… Sout…      12
     2  2000 Divorced         48 White 5,000 - 15,000 Not str r… Prot… Bapt…      NA
     3  2000 Widowed          67 White Other          Independe… Prot… No d…       2
     4  2000 Never married    39 White Other          Ind,near … Orth… Not …       4
     5  2000 Divorced         25 White Other          Not str d… None  Not …       1
     6  2000 Married          25 White 15,000+        Strong de… Prot… Sout…      NA
     7  2000 Never married    36 White $25000 or more Not str r… Chri… Not …       3
     8  2000 Divorced         44 White 5,000 - 15,000 Ind,near … Prot… Luth…      NA
     9  2000 Married          44 White $25000 or more Not str d… Prot… Other       0
    10  2000 Married          47 White $25000 or more Strong re… Prot… Sout…       3
    # ℹ 21,473 more rows
…
