…
``` r
x <- c("$1,234", "USD 3,513", "59%")
parse_number(x)
```

    [1] 1234 3513   59

# Counts

``` r
flights |> count(dest)
```

    # A tibble: 105 × 2
       dest      n
       <chr> <int>
     1 ABQ     254
     2 ACK     265
     3 ALB     439
     4 ANC       8
     5 ATL   17215
     6 AUS    2439
     7 AVL     275
     8 BDL     443
     9 BGR     375
    10 BHM     297
    # ℹ 95 more rows

Use sort = TRUE to see the most common values

``` r
flights |> count(dest, sort = TRUE)
```

    # A tibble: 105 × 2
       dest      n
       <chr> <int>
     1 ORD   17283
     2 ATL   17215
     3 LAX   16174
     4 BOS   15508
     5 MCO   14082
     6 CLT   14064
     7 SFO   13331
     8 FLL   12055
     9 MIA   11728
    10 DCA    9705
    # ℹ 95 more rows

``` r
flights |> 
  group_by(dest) |> 
  summarize(
    n = n(),
    delay = mean(arr_delay, na.rm = TRUE)
  )
```

    # A tibble: 105 × 3
       dest      n delay
       <chr> <int> <dbl>
     1 ABQ     254  4.38
     2 ACK     265  4.85
     3 ALB     439 14.4 
     4 ANC       8 -2.5 
     5 ATL   17215 11.3 
     6 AUS    2439  6.02
     7 AVL     275  8.00
     8 BDL     443  7.05
     9 BGR     375  8.03
    10 BHM     297 16.9 
    # ℹ 95 more rows

n_distinct(x) counts the number of distinct (unique) values of one or
more variables:

``` r
flights |> 
  group_by(dest) |> 
  summarize(carriers = n_distinct(carrier)) |> 
  arrange(desc(carriers))
```

    # A tibble: 105 × 2
       dest  carriers
       <chr>    <int>
     1 ATL          7
     2 BOS          7
     3 CLT          7
     4 ORD          7
     5 TPA          7
     6 AUS          6
     7 DCA          6
     8 DTW          6
     9 IAD          6
    10 MSP          6
    # ℹ 95 more rows

``` r
flights |> 
  group_by(tailnum) |> 
  summarize(miles = sum(distance))
```

    # A tibble: 4,044 × 2
       tailnum  miles
       <chr>    <dbl>
     1 D942DN    3418
     2 N0EGMQ  250866
     3 N10156  115966
     4 N102UW   25722
     5 N103US   24619
     6 N104UW   25157
     7 N10575  150194
     8 N105UW   23618
     9 N107US   21677
    10 N108UW   32070
    # ℹ 4,034 more rows

``` r
flights |> count(tailnum, wt = distance)
```

    # A tibble: 4,044 × 2
       tailnum      n
       <chr>    <dbl>
     1 D942DN    3418
     2 N0EGMQ  250866
     3 N10156  115966
     4 N102UW   25722
     5 N103US   24619
     6 N104UW   25157
     7 N10575  150194
     8 N105UW   23618
     9 N107US   21677
    10 N108UW   32070
    # ℹ 4,034 more rows

# Exercises pt 1 of 4

1.  Use is.na() in the count argument
2.  

``` r
flights %>%
  group_by(dest) %>%
  summarize(n = n(), .groups = "drop") %>%
  arrange(desc(n))
```

    # A tibble: 105 × 2
       dest      n
       <chr> <int>
     1 ORD   17283
     2 ATL   17215
     3 LAX   16174
     4 BOS   15508
     5 MCO   14082
     6 CLT   14064
     7 SFO   13331
     8 FLL   12055
     9 MIA   11728
    10 DCA    9705
    # ℹ 95 more rows

``` r
flights %>%
  group_by(tailnum) %>%
  summarize(n = sum(distance, na.rm = TRUE), .groups = "drop")
```

    # A tibble: 4,044 × 2
       tailnum      n
       <chr>    <dbl>
     1 D942DN    3418
     2 N0EGMQ  250866
     3 N10156  115966
     4 N102UW   25722
     5 N103US   24619
     6 N104UW   25157
     7 N10575  150194
     8 N105UW   23618
     9 N107US   21677
    10 N108UW   32070
    # ℹ 4,034 more rows
…
``` r
x * c(1, 2, 3)
```

    Warning in x * c(1, 2, 3): longer object length is not a multiple of shorter
    object length

    [1]  1  4 30 20

``` r
flights |> 
  filter(month == c(1, 2))
```

    # A tibble: 25,977 × 19
        year month   day dep_time sched_dep_time dep_delay arr_time sched_arr_time
       <int> <int> <int>    <int>          <int>     <dbl>    <int>          <int>
     1  2013     1     1      517            515         2      830            819
     2  2013     1     1      542            540         2      923            850
     3  2013     1     1      554            600        -6      812            837
     4  2013     1     1      555            600        -5      913            854
     5  2013     1     1      557            600        -3      838            846
     6  2013     1     1      558            600        -2      849            851
     7  2013     1     1      558            600        -2      924            917
     8  2013     1     1      559            600        -1      941            910
     9  2013     1     1      559            600        -1      854            902
    10  2013     1     1      600            600         0      837            825
    # ℹ 25,967 more rows
    # ℹ 11 more variables: arr_delay <dbl>, carrier <chr>, flight <int>,
    #   tailnum <chr>, origin <chr>, dest <chr>, air_time <dbl>, distance <dbl>,
    #   hour <dbl>, minute <dbl>, time_hour <dttm>
…
     [1] 1 2 0 1 2 0 1 2 0 1

``` r
flights |> 
  mutate(
    hour = sched_dep_time %/% 100,
    minute = sched_dep_time %% 100,
    .keep = "used"
  )
```

    # A tibble: 336,776 × 3
       sched_dep_time  hour minute
                <int> <dbl>  <dbl>
     1            515     5     15
     2            529     5     29
     3            540     5     40
     4            545     5     45
     5            600     6      0
     6            558     5     58
     7            600     6      0
     8            600     6      0
     9            600     6      0
    10            600     6      0
    # ℹ 336,766 more rows
…
2.  sin(), cos(), tan(), asin(), acos(), atan() They all use radians

3.  

``` r
flights %>%
  mutate(
    sched_dep_hour = sched_dep_time %/% 100,
    sched_dep_min  = sched_dep_time %% 100,
    sched_dep_time_frac = sched_dep_hour + sched_dep_min / 60
  )
```

    # A tibble: 336,776 × 22
        year month   day dep_time sched_dep_time dep_delay arr_time sched_arr_time
       <int> <int> <int>    <int>          <int>     <dbl>    <int>          <int>
     1  2013     1     1      517            515         2      830            819
     2  2013     1     1      533            529         4      850            830
     3  2013     1     1      542            540         2      923            850
     4  2013     1     1      544            545        -1     1004           1022
     5  2013     1     1      554            600        -6      812            837
     6  2013     1     1      554            558        -4      740            728
     7  2013     1     1      555            600        -5      913            854
     8  2013     1     1      557            600        -3      709            723
     9  2013     1     1      557            600        -3      838            846
    10  2013     1     1      558            600        -2      753            745
    # ℹ 336,766 more rows
    # ℹ 14 more variables: arr_delay <dbl>, carrier <chr>, flight <int>,
    #   tailnum <chr>, origin <chr>, dest <chr>, air_time <dbl>, distance <dbl>,
    #   hour <dbl>, minute <dbl>, time_hour <dttm>, sched_dep_hour <dbl>,
    #   sched_dep_min <dbl>, sched_dep_time_frac <dbl>

4.  

``` r
flights %>%
  mutate(
    dep_time_rounded = round((dep_time %/% 100) * 60 + (dep_time %% 100) / 5) * 5,
    arr_time_rounded = round((arr_time %/% 100) * 60 + (arr_time %% 100) / 5) * 5
  )
```

    # A tibble: 336,776 × 21
        year month   day dep_time sched_dep_time dep_delay arr_time sched_arr_time
       <int> <int> <int>    <int>          <int>     <dbl>    <int>          <int>
     1  2013     1     1      517            515         2      830            819
     2  2013     1     1      533            529         4      850            830
     3  2013     1     1      542            540         2      923            850
     4  2013     1     1      544            545        -1     1004           1022
     5  2013     1     1      554            600        -6      812            837
     6  2013     1     1      554            558        -4      740            728
     7  2013     1     1      555            600        -5      913            854
     8  2013     1     1      557            600        -3      709            723
     9  2013     1     1      557            600        -3      838            846
    10  2013     1     1      558            600        -2      753            745
    # ℹ 336,766 more rows
    # ℹ 13 more variables: arr_delay <dbl>, carrier <chr>, flight <int>,
    #   tailnum <chr>, origin <chr>, dest <chr>, air_time <dbl>, distance <dbl>,
    #   hour <dbl>, minute <dbl>, time_hour <dttm>, dep_time_rounded <dbl>,
    #   arr_time_rounded <dbl>
…
2.  

``` r
flights %>%
  group_by(tailnum) %>%
  summarise(
    avg_arr_delay = mean(arr_delay, na.rm = TRUE),
    n = n()
  ) %>%
  filter(n >= 20) %>%  # exclude planes with very few flights
  arrange(desc(avg_arr_delay))
```

    # A tibble: 3,164 × 3
       tailnum avg_arr_delay     n
       <chr>           <dbl> <int>
     1 N203FR           59.1    41
     2 N645MQ           51      25
     3 N956AT           47.6    36
     4 N988AT           44.3    37
     5 N521VA           42.2    27
     6 N353AT           41.2    21
     7 N942AT           41.2    20
     8 N6716C           40.3    25
     9 N908MQ           38.5    22
    10 N657MQ           38.5    39
    # ℹ 3,154 more rows
…
5.  

``` r
flights |> 
  group_by(dest) |> 
  mutate(
    total_delay = sum(dep_delay, na.rm = TRUE),           
    delay_prop  = dep_delay / total_delay                
  )
```

    # A tibble: 336,776 × 21
    # Groups:   dest [105]
        year month   day dep_time sched_dep_time dep_delay arr_time sched_arr_time
       <int> <int> <int>    <int>          <int>     <dbl>    <int>          <int>
     1  2013     1     1      517            515         2      830            819
     2  2013     1     1      533            529         4      850            830
     3  2013     1     1      542            540         2      923            850
     4  2013     1     1      544            545        -1     1004           1022
     5  2013     1     1      554            600        -6      812            837
     6  2013     1     1      554            558        -4      740            728
     7  2013     1     1      555            600        -5      913            854
     8  2013     1     1      557            600        -3      709            723
     9  2013     1     1      557            600        -3      838            846
    10  2013     1     1      558            600        -2      753            745
    # ℹ 336,766 more rows
    # ℹ 13 more variables: arr_delay <dbl>, carrier <chr>, flight <int>,
    #   tailnum <chr>, origin <chr>, dest <chr>, air_time <dbl>, distance <dbl>,
    #   hour <dbl>, minute <dbl>, time_hour <dttm>, total_delay <dbl>,
    #   delay_prop <dbl>
…
  group_by(year, month, day, hour) |> 
  summarize(
    dep_delay = mean(dep_delay, na.rm = TRUE),
    n = n(),
    .groups = "drop"
  ) |> 
  filter(n > 5) |> 
  arrange(year, month, day, hour) |> 
  mutate(
    lag_delay = lag(dep_delay),
    delay_diff = dep_delay - lag_delay
  )
```

    # A tibble: 6,964 × 8
        year month   day  hour dep_delay     n lag_delay delay_diff
       <int> <int> <int> <dbl>     <dbl> <int>     <dbl>      <dbl>
     1  2013     1     1     5    -1.53     17    NA         NA    
     2  2013     1     1     6    -1.16     51    -1.53       0.373
     3  2013     1     1     7     1.38     37    -1.16       2.54 
     4  2013     1     1     8    14.1      64     1.38      12.7  
     5  2013     1     1     9     6.02     52    14.1       -8.09 
     6  2013     1     1    10     0.513    39     6.02      -5.51 
     7  2013     1     1    11     4.98     45     0.513      4.46 
     8  2013     1     1    12     2.14     43     4.98      -2.84 
     9  2013     1     1    13     9.17     47     2.14       7.03 
    10  2013     1     1    14     4.32     50     9.17      -4.85 
    # ℹ 6,954 more rows
…
``` r
multi_carrier_dests <- flights |> 
  filter(!is.na(dest), !is.na(carrier)) |> 
  distinct(dest, carrier) |> 
  count(dest) |> 
  filter(n >= 2) |> 
  pull(dest)

flights_multi <- flights |> 
  filter(dest %in% multi_carrier_dests)

flights_multi
```

    # A tibble: 325,397 × 19
        year month   day dep_time sched_dep_time dep_delay arr_time sched_arr_time
       <int> <int> <int>    <int>          <int>     <dbl>    <int>          <int>
     1  2013     1     1      517            515         2      830            819
     2  2013     1     1      533            529         4      850            830
     3  2013     1     1      542            540         2      923            850
     4  2013     1     1      544            545        -1     1004           1022
     5  2013     1     1      554            600        -6      812            837
     6  2013     1     1      554            558        -4      740            728
     7  2013     1     1      555            600        -5      913            854
     8  2013     1     1      557            600        -3      709            723
     9  2013     1     1      557            600        -3      838            846
    10  2013     1     1      558            600        -2      753            745
    # ℹ 325,387 more rows
    # ℹ 11 more variables: arr_delay <dbl>, carrier <chr>, flight <int>,
    #   tailnum <chr>, origin <chr>, dest <chr>, air_time <dbl>, distance <dbl>,
    #   hour <dbl>, minute <dbl>, time_hour <dttm>
…
# Minimum, Maximum, and Quantiles

``` r
flights |>
  group_by(year, month, day) |>
  summarize(
    max = max(dep_delay, na.rm = TRUE),
    q95 = quantile(dep_delay, 0.95, na.rm = TRUE),
    .groups = "drop"
  )
```

    # A tibble: 365 × 5
        year month   day   max   q95
       <int> <int> <int> <dbl> <dbl>
     1  2013     1     1   853  70.1
     2  2013     1     2   379  85  
     3  2013     1     3   291  68  
     4  2013     1     4   288  60  
     5  2013     1     5   327  41  
     6  2013     1     6   202  51  
     7  2013     1     7   366  51.6
     8  2013     1     8   188  35.3
     9  2013     1     9  1301  27.2
    10  2013     1    10  1126  31  
    # ℹ 355 more rows
…
``` r
flights |> 
  group_by(year, month, day) |> 
  summarize(
    first_dep = first(dep_time, na_rm = TRUE), 
    fifth_dep = nth(dep_time, 5, na_rm = TRUE),
    last_dep = last(dep_time, na_rm = TRUE)
  )
```

    `summarise()` has grouped output by 'year', 'month'. You can override using the
    `.groups` argument.

    # A tibble: 365 × 6
    # Groups:   year, month [12]
        year month   day first_dep fifth_dep last_dep
       <int> <int> <int>     <int>     <int>    <int>
     1  2013     1     1       517       554     2356
     2  2013     1     2        42       535     2354
     3  2013     1     3        32       520     2349
     4  2013     1     4        25       531     2358
     5  2013     1     5        14       534     2357
     6  2013     1     6        16       555     2355
     7  2013     1     7        49       536     2359
     8  2013     1     8       454       544     2351
     9  2013     1     9         2       524     2252
    10  2013     1    10         3       530     2320
    # ℹ 355 more rows

``` r
flights |> 
  group_by(year, month, day) |> 
  mutate(r = min_rank(sched_dep_time)) |> 
  filter(r %in% c(1, max(r)))
```

    # A tibble: 1,195 × 20
    # Groups:   year, month, day [365]
        year month   day dep_time sched_dep_time dep_delay arr_time sched_arr_time
       <int> <int> <int>    <int>          <int>     <dbl>    <int>          <int>
     1  2013     1     1      517            515         2      830            819
     2  2013     1     1     2353           2359        -6      425            445
     3  2013     1     1     2353           2359        -6      418            442
     4  2013     1     1     2356           2359        -3      425            437
     5  2013     1     2       42           2359        43      518            442
     6  2013     1     2      458            500        -2      703            650
     7  2013     1     2     2351           2359        -8      427            445
     8  2013     1     2     2354           2359        -5      413            437
     9  2013     1     3       32           2359        33      504            442
    10  2013     1     3      235           2359       156      700            437
    # ℹ 1,185 more rows
    # ℹ 12 more variables: arr_delay <dbl>, carrier <chr>, flight <int>,
    #   tailnum <chr>, origin <chr>, dest <chr>, air_time <dbl>, distance <dbl>,
    #   hour <dbl>, minute <dbl>, time_hour <dttm>, r <int>
…
2.  

``` r
flights %>%
  group_by(dest) %>%
  summarize(sd_air_speed = sd(air_time / distance * 60, na.rm = TRUE)) %>%
  arrange(desc(sd_air_speed))
```

    # A tibble: 105 × 2
       dest  sd_air_speed
       <chr>        <dbl>
     1 PHL           4.03
     2 ACK           2.45
     3 DCA           1.79
     4 BDL           1.70
     5 BOS           1.53
     6 IAD           1.49
     7 BWI           1.44
     8 ALB           1.29
     9 PVD           1.23
    10 SYR           1.17
    # ℹ 95 more rows
